<svg width="131" height="128" viewBox="0 0 131 128" fill="none" xmlns="http://www.w3.org/2000/svg">
<path fill-rule="evenodd" clip-rule="evenodd" d="M22.9277 15.527C22.3022 16.1749 22.3135 17.1986 22.9533 17.8327L26.6436 21.4903L12.9921 78.5886L54.7912 120L110.054 104.163L114.495 108.565C115.054 109.118 115.952 109.141 116.539 108.617C117.167 108.055 117.193 107.088 116.597 106.493L25.315 15.5044C24.6544 14.846 23.5754 14.8562 22.9277 15.527Z" fill="url(#paint0_linear)"/>
<mask id="path-2-inside-1" fill="white">
<path fill-rule="evenodd" clip-rule="evenodd" d="M83.5199 32L65.5607 14.0389L83.5199 32Z"/>
</mask>
<path d="M86.3485 29.1717C87.9105 30.7339 87.9103 33.2666 86.3482 34.8286C84.786 36.3906 82.2533 36.3905 80.6913 34.8283L86.3485 29.1717ZM62.7321 16.8671C61.1701 15.305 61.1703 12.7723 62.7324 11.2103C64.2946 9.64827 66.8273 9.64841 68.3893 11.2106L62.7321 16.8671ZM80.6913 34.8283L62.7321 16.8671L68.3893 11.2106L86.3485 29.1717L80.6913 34.8283Z" fill="#7FA9B3" mask="url(#path-2-inside-1)"/>
<mask id="path-4-inside-2" fill="white">
<path fill-rule="evenodd" clip-rule="evenodd" d="M70.5724 32L50.4086 12.0394L70.5724 32Z"/>
</mask>
<path d="M73.3865 29.1573C74.9564 30.7115 74.9693 33.2441 73.4151 34.8141C71.8609 36.3841 69.3283 36.3969 67.7583 34.8427L73.3865 29.1573ZM47.5945 14.8821C46.0245 13.328 46.0117 10.7954 47.5659 9.22536C49.1201 7.65538 51.6527 7.64255 53.2227 9.19671L47.5945 14.8821ZM67.7583 34.8427L47.5945 14.8821L53.2227 9.19671L73.3865 29.1573L67.7583 34.8427Z" fill="#7FA9B3" mask="url(#path-4-inside-2)"/>
<mask id="path-6-inside-3" fill="white">
<path fill-rule="evenodd" clip-rule="evenodd" d="M56.2396 32L33.2362 9.04011L56.2396 32Z"/>
</mask>
<path d="M59.0654 29.1689C60.629 30.7295 60.6314 33.2622 59.0707 34.8257C57.5101 36.3893 54.9775 36.3917 53.4139 34.8311L59.0654 29.1689ZM30.4104 11.8712C28.8468 10.3106 28.8444 7.77795 30.4051 6.21437C31.9657 4.65079 34.4983 4.64839 36.0619 6.20901L30.4104 11.8712ZM53.4139 34.8311L30.4104 11.8712L36.0619 6.20901L59.0654 29.1689L53.4139 34.8311Z" fill="#7FA9B3" mask="url(#path-6-inside-3)"/>
<path fill-rule="evenodd" clip-rule="evenodd" d="M62.7547 92.2283L60.4559 86.0329L49.0465 85.5903L49.2908 74.1176L45.0339 72.316L49.2908 62.9558C49.2908 62.9558 48.3297 56.5728 49.9542 51.5854C51.5787 46.5981 55.7301 40.2283 69.5397 40.2283C83.3493 40.2283 88.1883 52.5529 88.1883 52.5529L89.7206 58.5857V64.2242L86.5034 71.4116L84.0881 74.1176L88.1883 86.0329L62.7547 92.2283Z" fill="white"/>
<path d="M44.5387 75.5138L46.8021 76.2451V83.0554C46.8021 85.8952 49.1527 88.1974 52.0523 88.1974H59.0818L60.4702 92.9623C60.6908 93.7211 61.4979 94.1611 62.2727 93.945C63.0476 93.7288 63.4968 92.9384 63.2761 92.1796L61.5844 86.3748C61.405 85.7632 60.8341 85.3415 60.1843 85.3407H52.0465C50.7578 85.3407 49.7131 84.3176 49.7131 83.0554V75.2168C49.7126 74.6022 49.3108 74.0569 48.7155 73.8627L45.4546 72.8057C45.3564 72.774 45.2765 72.7033 45.2343 72.6108C45.1921 72.5184 45.1916 72.4129 45.2329 72.3201L48.733 64.6871C49.4008 63.2241 49.7448 61.6391 49.7422 60.0365C49.739 49.4538 58.4909 40.8695 69.2963 40.8569H69.3722C77.2025 40.8836 84.2629 45.4786 87.3212 52.5384C90.3795 59.5983 88.847 67.7639 83.4252 73.2971C83.0655 73.664 82.9322 74.1907 83.0752 74.6797L84.2637 79.0845C84.4844 79.8433 85.2915 80.2833 86.0663 80.0672C86.8411 79.851 87.2904 79.0606 87.0697 78.3018L86.097 74.6683C90.0984 70.2964 92.1319 64.5296 91.738 58.671C90.9955 47.0914 81.2187 38.0556 69.3722 38.0003H69.308C63.3401 37.9973 57.6157 40.317 53.3947 44.4488C49.1736 48.5807 46.8021 54.186 46.8021 60.0308C46.8022 61.2342 46.5417 62.424 46.0379 63.5216L42.5728 71.1375C42.1943 71.9675 42.1921 72.9155 42.5667 73.7472C42.9413 74.5789 43.6577 75.2165 44.5387 75.5024V75.5138Z" fill="#183B56"/>
<path fill-rule="evenodd" clip-rule="evenodd" d="M77.0932 49.516C78.5293 50.2517 79.492 51.6751 79.6452 53.2894C79.7693 54.6942 79.2636 56.0814 78.2663 57.0724C77.837 57.507 77.3262 57.8516 76.7636 58.0862C77.0194 58.2994 77.2658 58.5103 77.5057 58.7157C77.6352 58.8267 77.7629 58.936 77.8893 59.0433C78.6109 59.6555 79.0273 60.557 79.0273 61.5068C79.0273 62.4566 78.6109 63.358 77.8893 63.9703C77.514 64.2799 77.1388 64.597 76.7636 64.9217C77.7072 65.309 78.4982 65.9975 79.0149 66.8812C79.8291 68.2758 79.8805 69.9918 79.1512 71.4332C78.4219 72.8745 77.0126 73.8422 75.4129 74H74.957C73.7072 74.0017 72.5082 73.5024 71.6251 72.6125C71.1932 72.1805 70.8508 71.6665 70.6177 71.1004C70.2913 71.4779 69.9761 71.8555 69.6722 72.233C69.0639 72.9612 68.1635 73.3768 67.2183 73.3657C66.2762 73.3696 65.3804 72.9552 64.77 72.233C62.2773 69.247 59.5318 66.4842 56.5642 63.976C55.8388 63.3648 55.4197 62.4617 55.4197 61.5096C55.4197 60.5576 55.8388 59.6544 56.5642 59.0433C59.5285 56.5457 62.2721 53.7943 64.7644 50.8202C65.3748 50.0981 66.2706 49.6836 67.2127 49.6875C68.1584 49.674 69.0598 50.0901 69.6665 50.8202C69.9742 51.1788 70.2894 51.547 70.6121 51.9245C70.9969 50.975 71.6811 50.1791 72.5594 49.6592C73.9468 48.8343 75.6571 48.7802 77.0932 49.516ZM75.2046 55.6226C75.6067 55.5683 75.9802 55.3834 76.2684 55.0959L76.2965 55.0506C76.9568 54.3698 77.02 53.3043 76.4448 52.5493C75.8697 51.7942 74.8308 51.5788 74.0058 52.0434C73.503 52.3326 73.1635 52.8418 73.0885 53.4196C73.0273 53.8908 72.8137 54.3287 72.4806 54.6655L72.3737 54.7731C71.7432 55.4031 70.7918 55.5766 69.9817 55.2092C69.809 55.1298 69.6539 55.0162 69.5258 54.8751C68.8279 54.1105 68.1526 53.3403 67.5166 52.5814C67.444 52.4907 67.3341 52.4385 67.2183 52.4399C67.1045 52.4402 66.997 52.4922 66.9256 52.5814C64.3272 55.6947 61.4648 58.575 58.3708 61.1896C58.2825 61.2628 58.2314 61.3719 58.2314 61.487C58.2314 61.6021 58.2825 61.7111 58.3708 61.7843C61.4491 64.4157 64.2945 67.3111 66.875 70.4378C66.9464 70.53 67.0571 70.5825 67.1733 70.5794C67.289 70.5807 67.399 70.5285 67.4716 70.4378C68.1019 69.6902 68.7773 68.9144 69.4808 68.1442C69.6087 68.0028 69.7638 67.8892 69.9367 67.81C70.7466 67.441 71.6989 67.6146 72.3287 68.2461L72.4412 68.3594C72.774 68.6965 72.9875 69.1342 73.0491 69.6053C73.1042 70.0079 73.2879 70.3816 73.5725 70.67C74.2491 71.3344 75.308 71.398 76.0583 70.8193C76.8087 70.2405 77.0228 69.1951 76.561 68.365C76.2737 67.859 75.7676 67.5175 75.1934 67.4419C74.7271 67.3792 74.2941 67.1644 73.9608 66.8303L73.8483 66.717C73.2226 66.082 73.0523 65.1239 73.4205 64.3101C73.4976 64.1367 73.6087 63.9807 73.7469 63.8514C74.5067 63.1491 75.2778 62.4695 76.032 61.8296C76.1205 61.7553 76.1717 61.6454 76.1717 61.5294C76.1717 61.4135 76.1205 61.3035 76.032 61.2293C75.2891 60.6007 74.5236 59.9154 73.7526 59.2075C73.6143 59.0782 73.5033 58.9222 73.4261 58.7488C73.0594 57.9338 73.2319 56.9755 73.8595 56.3419L73.9664 56.2343C74.3015 55.8994 74.7365 55.6845 75.2046 55.6226Z" fill="#FBBD92"/>
<path d="M87.335 82.873L88.2274 85.7173" stroke="#183B56" stroke-width="3" stroke-linecap="round"/>
<defs>
<linearGradient id="paint0_linear" x1="-39.0255" y1="67.5085" x2="65.9528" y2="171.539" gradientUnits="userSpaceOnUse">
<stop stop-color="#BBD6D9"/>
<stop offset="1" stop-color="#507785"/>
</linearGradient>
</defs>
</svg>
