<svg width="98" height="25" viewBox="0 0 98 25" fill="none" xmlns="http://www.w3.org/2000/svg">
<path fill-rule="evenodd" clip-rule="evenodd" d="M14.8093 2C14.8093 3.07692 13.8768 4 12.7889 4C11.701 4 10.7686 3.07692 10.7686 2C10.7686 0.923077 11.701 0 12.7889 0C13.8768 0 14.8093 0.923077 14.8093 2ZM12.7889 5C11.6555 5 10.7686 5.87805 10.7686 7C10.7686 8.12195 11.6555 9 12.7889 9C13.9223 9 14.8093 8.12195 14.8093 7C14.8093 5.82927 13.9223 5 12.7889 5ZM10.7686 13C10.7686 11.9048 11.6821 11 12.788 11C13.894 11 14.8556 11.9048 14.8075 13C14.8075 14.0952 13.894 15 12.788 15C11.6821 15 10.7686 14.0952 10.7686 13ZM12.7889 16C11.6555 16 10.7686 16.878 10.7686 18C10.7686 19.122 11.6555 20 12.7889 20C13.9223 20 14.8093 19.122 14.8093 18C14.8093 16.9268 13.9223 16 12.7889 16ZM10.7686 23C10.7686 21.9231 11.701 21 12.7889 21C13.9286 21 14.8093 21.9231 14.8093 23C14.8093 24.0769 13.8768 25 12.7889 25C11.701 25 10.7686 24.0769 10.7686 23ZM17.8398 5C16.7417 5 15.8194 5.91304 15.8194 7C15.8194 8.08696 16.7417 9 17.8398 9C18.9378 9 19.8602 8.08696 19.8602 7C19.8602 5.91304 18.9378 5 17.8398 5ZM15.8194 12.5C15.8194 11.0938 16.9769 10 18.3449 10C19.7128 10 20.8704 11.0938 20.8704 12.5C20.8704 13.9062 19.7128 15 18.3449 15C16.9243 15 15.8194 13.8542 15.8194 12.5ZM20.8704 12.5C20.8704 11.0849 22.0616 10 23.3958 10C24.73 10 25.826 11.0849 25.9213 12.5C25.9213 13.9151 24.8253 15 23.3958 15C21.9663 15 20.8704 13.8208 20.8704 12.5ZM17.8398 16C16.7417 16 15.8194 16.913 15.8194 18C15.8194 19.087 16.7417 20 17.8398 20C18.9378 20 19.8602 19.087 19.8602 18C19.8602 16.913 18.9378 16 17.8398 16ZM7.23291 6C6.41034 6 5.71765 6.68571 5.71765 7.5C5.71765 8.31429 6.41034 9 7.23291 9C8.05548 9 8.74817 8.31429 8.74817 7.5C8.74817 6.68571 8.09877 6 7.23291 6ZM5.71765 13C5.71765 11.8649 6.59132 11 7.73801 11C8.8847 11 9.75836 11.8649 9.75836 13C9.75836 14.1351 8.8847 15 7.73801 15C6.59132 15 5.71765 14.1351 5.71765 13ZM7.23291 16C6.41034 16 5.71765 16.6857 5.71765 17.5C5.71765 18.3143 6.41034 19 7.23291 19C8.05548 19 8.74817 18.3143 8.74817 17.5C8.74817 16.6857 8.09877 16 7.23291 16ZM0.666748 12.5C0.666748 11.6562 1.32967 11 2.18201 11C3.03434 11 3.69727 11.6562 3.69727 12.5C3.69727 13.3438 3.03434 14 2.18201 14C1.32967 14 0.666748 13.3438 0.666748 12.5Z" fill="#5A7184"/>
<path d="M45.4155 10C45.2436 10 45.1146 10.1924 45.1146 10.3368V23.6632C45.1146 23.8557 45.2866 24 45.4155 24H46.8341C47.006 24 47.135 23.8076 47.135 23.6632V10.3368C47.135 10.1443 46.9631 10 46.8341 10H45.4155V10Z" fill="#5A7184"/>
<path d="M45.6198 4C44.7674 4 44.1045 4.65625 44.1045 5.5C44.1045 6.34375 44.7674 7 45.6198 7C46.4721 7 47.135 6.34375 47.135 5.5C47.135 4.65625 46.4247 4 45.6198 4Z" fill="#5A7184"/>
<path d="M79.7617 10C79.5898 10 79.4608 10.1924 79.4608 10.3368V23.6632C79.4608 23.8557 79.6328 24 79.7617 24H81.1802C81.3522 24 81.4811 23.8076 81.4811 23.6632V10.3368C81.4811 10.1443 81.3092 10 81.1802 10H79.7617V10Z" fill="#5A7184"/>
<path d="M80.9761 4C80.1237 4 79.4608 4.65625 79.4608 5.5C79.4608 6.34375 80.1237 7 80.9761 7C81.8284 7 82.4913 6.34375 82.4913 5.5C82.4913 4.65625 81.8284 4 80.9761 4Z" fill="#5A7184"/>
<path fill-rule="evenodd" clip-rule="evenodd" d="M96.5833 22.24C96.5833 22.28 96.5833 22.36 96.4823 22.44C96.4823 22.52 96.3813 22.6 96.1793 22.56L96.6339 23H96.4318L96.0782 22.64H95.8257V23H95.6237V22.1H96.1288C96.1586 22.1 96.2009 22.0971 96.2504 22.0938C96.3205 22.0891 96.405 22.0833 96.4895 22.0833C96.4983 22.0833 96.5066 22.0833 96.5144 22.0832C96.5833 22.098 96.5833 22.16 96.5833 22.16V22.24ZM96.3018 22.0012C96.3796 22.0028 96.4471 22.0069 96.4895 22.0167C96.6339 22.0167 96.6339 22.0333 96.6339 22.05C96.6339 22.0657 96.6339 22.0813 96.5144 22.0832C96.505 22.0811 96.4944 22.08 96.4823 22.08C96.4823 22.08 96.3952 22.011 96.3018 22.0012ZM96.1288 22H96.2803C96.2875 22 96.2947 22.0004 96.3018 22.0012C96.2475 22 96.1881 22 96.1288 22Z" fill="#5A7184"/>
<path fill-rule="evenodd" clip-rule="evenodd" d="M95.6237 23C95.6237 22.4783 96.1068 22 96.6339 22C97.2048 22 97.644 22.4348 97.644 23C97.644 23.5217 97.1609 24 96.6339 24C96.1068 24 95.6237 23.5217 95.6237 23ZM95.6237 23C95.6237 22.4286 96.0566 22 96.6339 22C97.2111 22 97.644 22.4286 97.644 23C97.644 23.5714 97.163 24 96.6339 24C96.0566 24 95.6237 23.5714 95.6237 23Z" fill="#5A7184"/>
<path d="M58.9185 11.9801C59.112 11.9801 59.2572 11.7805 59.2572 11.6309V9.98504C59.2572 9.78554 59.0636 9.63591 58.9185 9.63591H55.4826V4.34913C55.4826 4.14963 55.2891 4 55.1439 4H53.547C53.3534 4 53.2082 4.1995 53.2082 4.34913V9.63591H51.5145C51.321 9.63591 51.1758 9.83541 51.1758 9.98504V11.6309C51.1758 11.8304 51.3693 11.9801 51.5145 11.9801H53.2082V19.9601C53.2082 22.404 54.8052 24 57.128 24H58.8217C59.0152 24 59.1604 23.8005 59.1604 23.6509V22.005C59.1604 21.8055 58.9669 21.6559 58.8217 21.6559H57.3699C56.2569 21.6559 55.4826 20.8579 55.4826 19.611V11.9302H58.9185V11.9801V11.9801Z" fill="#5A7184"/>
<path d="M92.2545 11.9801C92.448 11.9801 92.5932 11.7805 92.5932 11.6309V9.98504C92.5932 9.78554 92.3996 9.63591 92.2545 9.63591H88.8186V4.34913C88.8186 4.14963 88.625 4 88.4799 4H86.8829C86.6894 4 86.5442 4.1995 86.5442 4.34913V9.63591H84.8505C84.6569 9.63591 84.5117 9.83541 84.5117 9.98504V11.6309C84.5117 11.8304 84.7053 11.9801 84.8505 11.9801H86.5442V19.9601C86.5442 22.404 88.1411 24 90.4639 24H92.1577C92.3512 24 92.4964 23.8005 92.4964 23.6509V22.005C92.4964 21.8055 92.3028 21.6559 92.1577 21.6559H90.6091C89.4961 21.6559 88.7218 20.8579 88.7218 19.611V11.9302H92.2061L92.2545 11.9801V11.9801Z" fill="#5A7184"/>
<path d="M34.9431 11.8776V23.6508C34.9431 23.8503 35.1289 24 35.2683 24H36.8009C36.9867 24 37.1261 23.8005 37.1261 23.6508V11.8776H40.7488C40.9346 11.8776 41.0739 11.678 41.0739 11.5283V9.88209C41.0739 9.68254 40.8881 9.53288 40.7488 9.53288H37.1261V6.43991C37.1261 5.19274 37.9621 4.34467 38.9374 4.34467H40.7488C40.9346 4.34467 41.0739 4.14512 41.0739 3.99546V2.34921C41.0739 2.14966 40.8881 2 40.7488 2H39.0303C36.7545 2 34.9431 4.04535 34.9431 6.39002V9.53288H33.3175C33.1318 9.53288 32.9924 9.73243 32.9924 9.88209V11.5283C32.9924 11.7279 33.1782 11.8776 33.3175 11.8776H34.9431V11.8776Z" fill="#5A7184"/>
<path fill-rule="evenodd" clip-rule="evenodd" d="M69.4084 8.99338C71.337 8.99338 73.1666 9.77042 74.4523 11.1302C75.7379 12.4901 76.4302 14.3841 76.4302 16.4724C76.4302 21.6689 72.8204 24 69.359 24C65.8481 24 62.2877 21.7174 62.2877 16.4724V2.33996C62.2877 2.19426 62.4361 2 62.6339 2H64.2657C64.414 2 64.6118 2.1457 64.6118 2.33996V10.8874C65.7492 9.77042 67.5788 8.99338 69.4084 8.99338ZM64.308 16.4747C64.308 19.1613 65.5265 22 68.8539 22C72.1812 22 73.3529 19.1613 73.3997 16.4747C73.3997 13.2304 71.572 11 68.8539 11C66.1358 11 64.308 13.1797 64.308 16.4747Z" fill="#5A7184"/>
</svg>
